<?xml version="1.0"?>
<robot name="olivia" xmlns:xacro="http://www.ros.org/wiki/xacro">
  <!-- Import Rviz colors -->
  <xacro:include filename="$(find iiwa_description)/urdf/iiwa14.xacro" />
  <xacro:include filename="$(find iiwa_description)/urdf/materials.xacro" />
  <xacro:include filename="$(find eureca_description)/urdf/olivia/gripper.xacro" />

  <xacro:arg name="hardware_interface" default="hardware_interface/PositionJointInterface"/>
  <xacro:arg name="robot_name" default="olivia"/>
  <xacro:arg name="robot_description_param" default="/robot_description"/>
  <xacro:arg name="origin_xyz" default="0 0 0"/>
  <xacro:arg name="origin_rpy" default="0 0 0"/>
  <xacro:arg name="world" default="world"/>
  <xacro:arg name="pi" default="3.1415"/>
  
  <link name="world" />
  
  <!--cart-->
  <link name="olivia_cart_base_link">
    <origin xyz="0 0 0" rpy="0 0 0"/>
  </link>
  <link name="olivia_cart">
    <inertial>
      <origin xyz="0 0 -0.1" rpy="0 0 0"/>
      <mass value="5"/>
      <inertia ixx="0.05"  ixy="0"  ixz="0" iyy="0.06" iyz="0" izz="0.03" />
    </inertial>
    <visual>
      <geometry>
        <mesh filename="package://eureca_description/meshes/olivia/visual/olivia_cart.stl" scale="0.001 0.001 0.001"/>
      </geometry>
      <material name="Black"/>
    </visual>
    <collision>
      <geometry>
        <mesh filename="package://eureca_description/meshes/olivia/collision/olivia_cart.stl" scale="0.001 0.001 0.001"/>
      </geometry>
      <material name="Black"/>
    </collision>
  </link>

  <joint name="olivia_cart_joint_cart_1" type="fixed">
    <parent link="olivia_cart_base_link"/>
    <child link="olivia_cart"/>
    <origin xyz="0 0 0" rpy="0 0 0"/>
  </joint>

  <joint name="olivia_cart_joint_cart_2" type="fixed">
    <parent link="olivia_cart"/>
    <child link="olivia_cart_follower_link"/>
    <origin xyz="-0.275 .215 .56" rpy="0 0 3.1415"/>
  </joint>
  
  <link name="olivia_cart_follower_link">
    <origin xyz="0 0 0" rpy="0 0 0"/>
  </link>


  <!--iiwa-->
  <xacro:iiwa14 hardware_interface="$(arg hardware_interface)" robot_name="$(arg robot_name)" robot_description_param="$(arg robot_description_param)" parent="olivia_cart_follower_link" >
    <origin xyz="0 0 0" rpy="0 0 0" />
  </xacro:iiwa14>
  
  <joint name="joint_world_carrello" type="fixed">
    <parent link="world"/>
    <child link="olivia_cart_base_link"/>
    <origin xyz="$(arg origin_xyz)" rpy="$(arg origin_rpy)"/>
  </joint>
  
   <joint name="joint_iiwa_to_grip" type="fixed">
    <parent link="$(arg robot_name)_link_ee"/>
    <child link="Gripper_base_link"/>
    <origin xyz="0 0 0" rpy="0 0 ${pi}"/>
  </joint>
<!--  End Effectors  -->
   <joint name="joint_EE_grip" type="fixed">
    <parent link="$(arg robot_name)_link_ee"/>
    <child link="EE_link_grip"/>
    <origin xyz="0 0 0.4" rpy="0 ${pi} ${-pi/2}"/>
  </joint>
  <link name="EE_link_grip"/>

   <joint name="joint_EE_attach" type="fixed">
    <parent link="EE_link_grip"/>
    <child link="EE_link_attach"/>
    <origin xyz="0 0 -0.4" rpy="${-pi/2} ${pi} 0"/>
    <origin xyz="0 0 -0.4" rpy="${-pi/2} ${pi} 0"/>
  </joint>
  <link name="EE_link_attach"/>
 <!--  gripper -->
  <xacro:gripper />

  <gazebo>
    <plugin filename="libgazebo_ros_moveit_planning_scene.so" name="gazebo_ros_moveit_planning_scene">
        <topicName>/$(arg robot_name)/planning_scene</topicName>
        <sceneName>/$(arg robot_name)</sceneName>
        <robotName>$(arg robot_name)</robotName>
        <updatePeriod>1</updatePeriod>
    </plugin>
  </gazebo>

</robot>
