<?xml version="1.0"?>

<robot name="cart" xmlns:xacro="http://ros.org/wiki/xacro">

  <xacro:property name="M_PI" value="3.14159"/>

 <xacro:macro name="cart" params="">

  <!-- Base link is the center of the robot's bottom plate -->
  <link name="cart_link">
    <visual>
      <origin xyz="0 0 0.0" rpy="0 0 0" />
      <geometry>
        <mesh filename="package://eureca_description/meshes/small_cart.dae"/>
      </geometry>
      <material name="Gray">
	 <color rgba="0.1 0.1 0.1 1.0" />
	</material>
    </visual>
    <collision>
      <origin xyz="0 0 ${base_z_size/2}" rpy="0 0 0" />
      <geometry>
        <box size="${base_x_size} ${base_y_size} ${base_z_size}"/>
      </geometry>
    </collision>
    <inertial>
        <mass value="10" />
        <inertia ixx="1.48454" ixy="0.0" ixz="0.0" iyy="3.02861" iyz="0.0" izz="4.10178" />
    </inertial>
  </link>

</xacro:macro>

</robot>
