<?xml version="1.0"?>
<robot name="popeye" xmlns:xacro="http://www.ros.org/wiki/xacro">
  <!-- Import Rviz colors -->
  <xacro:include filename="$(find eureca_description)/urdf/components/materials.xacro" />
  <xacro:include filename="$(find eureca_description)/urdf/components/hatrack.xacro"/>
  
  <xacro:arg name="robot_name" default="hatrack"/>
  <xacro:arg name="origin_xyz" default="0 0 0"/>
  <xacro:arg name="origin_rpy" default="0 0 0"/>
  
  <xacro:hatrack>
    <origin xyz="$(arg origin_xyz)" rpy="$(arg origin_rpy)" />
  </xacro:hatrack>

</robot>
