<?xml version="1.0"?>

<robot name="STL" xmlns:xacro="http://www.ros.org/wiki/xacro">

  <xacro:include filename="$(find iiwa_description)/urdf/iiwa14.xacro" />
  
  <xacro:macro name="component" params="name:=component *origin">
    <link name="${name}_base_link">
      <origin xyz="0 0 0" rpy="0 0 0"/>s
    </link>
    
    <link name="${name}">
      <inertial>
        <origin xyz="0 0 -0.1" rpy="0 0 0"/>
        <mass value="5"/>
        <inertia ixx="0.05"  ixy="0"  ixz="0" iyy="0.06" iyz="0" izz="0.03" />
      </inertial>  
      <visual>
	<xacro:insert_block name="origin"/>
        <geometry>
        
          <mesh filename="package://urdf/description/eureca_components/carrello_iiwa_new.stl" scale="0.001 0.001 0.001"/>
        
        <!--
        
          <mesh filename="package://urdf/description/eureca_components/side_panel.stl" scale="0.001 0.001 0.001"/>
          <mesh filename="package://urdf/description/eureca_components/panel_cart.stl" scale="0.001 0.001 0.001"/>
          <mesh filename="package://urdf/description/eureca_components/ceiling_panel.stl" scale="0.001 0.001 0.001"/>
          <mesh filename="package://urdf/description/eureca_components/cargo_panel_upper.stl" scale="0.001 0.001 0.001"/>
          <mesh filename="package://urdf/description/eureca_components/cargo_panel_lower.stl" scale="0.001 0.001 0.001"/>
          
          -->
          
        </geometry>
        <material name="Black"/>
      </visual>
    </link>
    
    <joint name="${name}_joint_base" type="fixed">
      <parent link="${name}_base_link"/>
      <child link="${name}"/>
      <origin xyz="0 0 0" rpy="0 0 0"/>
    </joint>
    
    <joint name="${name}_joint_follower_front" type="fixed">
      <parent link="${name}"/>
      <child link="${name}_follower_link"/>
      <origin xyz="0.369 0 0.45" rpy="0 0 0"/>
    </joint>
    
    <joint name="${name}_joint_follower_back" type="fixed">
      <parent link="${name}"/>
      <child link="${name}_follower_link_rear"/>
      <origin xyz="-0.491 0 0.45" rpy="0 0 -3.1415"/>
    </joint>
    
    <!--joint name="${name}_joint_follower_panel" type="fixed">
      <parent link="${name}"/>
      <child link="${name}_follower_panel"/>
      <origin xyz="0 0 0.568" rpy="0 0 0"/>
    </joint>
    
  <link name="${name}_follower_panel">
      <origin xyz="0 0 0" rpy="0 0 0"/>
    </link-->
  <link name="${name}_follower_link">
      <origin xyz="0 0 0" rpy="0 0 0"/>
    </link>
  <link name="${name}_follower_link_rear">
      <origin xyz="0 0 0" rpy="0 0 0"/>
    </link>
  </xacro:macro>


<!--                    robot                          -->

  <xacro:component name="component">
    <origin xyz="0 0 0" rpy="0 0 0" />
  </xacro:component>

  <link name="world">
    <origin xyz="0 0 0" rpy="0 0 0"/>
  </link>
  
  <joint name="joint_world_to_STL" type="fixed">
    <parent link="world"/>
    <child link="component_base_link"/>
    <origin xyz="0 0 0" rpy="0 0 0"/>
  </joint>

  
</robot>


